<svg width="37" height="28" viewBox="0 0 37 28" fill="none" xmlns="http://www.w3.org/2000/svg">
<path d="M33.0536 5C33.9676 5 34.7411 5.35156 35.4442 5.98438C36.077 6.6875 36.4286 7.46094 36.4286 8.375V28.625C36.4286 29.6094 36.077 30.3828 35.4442 31.0156C34.7411 31.7188 33.9676 32 33.0536 32H3.80357C2.8192 32 2.04576 31.7188 1.41295 31.0156C0.709822 30.3828 0.428572 29.6094 0.428572 28.625V8.375C0.428572 7.46094 0.709822 6.6875 1.41295 5.98438C2.04576 5.35156 2.8192 5 3.80357 5H33.0536ZM34.1786 28.625V8.375C34.1786 8.09375 34.0379 7.8125 33.827 7.60156C33.6161 7.39062 33.3348 7.25 33.0536 7.25H3.80357C3.45201 7.25 3.17076 7.39062 2.95982 7.60156C2.74888 7.8125 2.67857 8.09375 2.67857 8.375V28.625C2.67857 28.9766 2.74888 29.2578 2.95982 29.4688C3.17076 29.6797 3.45201 29.75 3.80357 29.75H33.0536C33.3348 29.75 33.6161 29.6797 33.827 29.4688C34.0379 29.2578 34.1786 28.9766 34.1786 28.625ZM8.30357 16.8125C7.17857 16.8125 6.26451 16.4609 5.49107 15.6875C4.71763 14.9141 4.36607 14 4.36607 12.875C4.36607 11.8203 4.71763 10.9062 5.49107 10.1328C6.26451 9.35938 7.17857 8.9375 8.30357 8.9375C9.35826 8.9375 10.2723 9.35938 11.0458 10.1328C11.8192 10.9062 12.2411 11.8203 12.2411 12.875C12.2411 14 11.8192 14.9141 11.0458 15.6875C10.2723 16.4609 9.35826 16.8125 8.30357 16.8125ZM8.30357 11.1875C7.81138 11.1875 7.38951 11.3984 7.10826 11.6797C6.7567 12.0312 6.61607 12.4531 6.61607 12.875C6.61607 13.3672 6.7567 13.7891 7.10826 14.0703C7.38951 14.4219 7.81138 14.5625 8.30357 14.5625C8.72545 14.5625 9.14732 14.4219 9.49888 14.0703C9.78013 13.7891 9.99107 13.3672 9.99107 12.875C9.99107 12.4531 9.78013 12.0312 9.49888 11.6797C9.14732 11.3984 8.72545 11.1875 8.30357 11.1875ZM22.8583 12.8047C23.1395 12.5234 23.5614 12.3125 24.0536 12.3125C24.4754 12.3125 24.8973 12.5234 25.2489 12.8047L31.4364 18.9922C31.7176 19.3438 31.9286 19.7656 31.9286 20.1875V26.6562C31.9286 26.9375 31.7879 27.1484 31.6473 27.2891C31.5067 27.4297 31.2958 27.5 31.0848 27.5H5.77232C5.49107 27.5 5.28013 27.4297 5.13951 27.2891C4.99888 27.1484 4.92857 26.9375 4.92857 26.6562V24.6875C4.92857 24.2656 5.0692 23.8438 5.42076 23.4922L11.6083 17.3047C11.8895 17.0234 12.3114 16.8125 12.8036 16.8125C13.2254 16.8125 13.6473 17.0234 13.9989 17.3047L16.1786 19.4844L22.8583 12.8047ZM29.6786 25.25V20.3984L24.0536 14.7734L16.1786 22.6484L12.8036 19.2734L7.17857 24.8984V25.25H29.6786Z" transform="translate(0 -4.59998)" fill="#64686F"/>
</svg>
